Exam 2
…
## Parsed with column specification:
## cols(
##   Team = col_character()
## )

## Parsed with column specification:
## cols()

nbateams

## # A tibble: 30 x 2
##    Team               abbr 
##    <fct>              <fct>
##  1 Milwaukee Bucks    MIL  
##  2 Toronto Raptors    TOR  
##  3 Philadelphia 76ers PHI  
##  4 Boston Celtics     BOS  
##  5 Indiana Pacers     IND  
##  6 Brooklyn Nets      BRK  
##  7 Orlando Magic      ORL  
##  8 Detroit Pistons    DET  
##  9 Charlotte Hornets  CHO  
## 10 Miami Heat         MIA  
## # ... with 20 more rows

nbateamdata <- teamdata %>% left_join(nbateams, by=c('Team'='Team')) %>%
  mutate(abbr=as.character(abbr)) %>% select(1,9,2:8)

## Warning: Column `Team` joining character vector and factor, coercing into
## character vector

nbateamdata$abbr[which(nbateamdata$Team=='New Jersey Nets')] <- 'NJN'
nbateamdata

## # A tibble: 300 x 9
##    Team                abbr  year      W     L  W.L.  PS.G  PA.G   SRS
##    <chr>               <chr> <fct> <dbl> <dbl> <dbl> <dbl> <dbl> <dbl>
##  1 Boston Celtics      BOS   2010     50    32 0.61   99.2  95.6  3.37
##  2 Toronto Raptors     TOR   2010     40    42 0.488 104.  106.  -1.83
##  3 New York Knicks     NYK   2010     29    53 0.354 102.  106.  -4.01
##  4 Philadelphia 76ers  PHI   2010     27    55 0.329  97.7 102.  -3.93
##  5 New Jersey Nets     NJN   2010     12    70 0.146  92.4 102.  -8.93
##  6 Cleveland Cavaliers CLE   2010     61    21 0.744 102.   95.6  6.17
##  7 Milwaukee Bucks     MIL   2010     46    36 0.561  97.7  96    1.37
##  8 Chicago Bulls       CHI   2010     41    41 0.5    97.5  99.1 -1.64
##  9 Indiana Pacers      IND   2010     32    50 0.39  101.  104.  -3.11
## 10 Detroit Pistons     DET   2010     27    55 0.329  94    99.1 -5.02
## # ... with 290 more rows
…
